{
  "mode": "analysis",
  "analysis": [
    {
      "function": "determine_sign_dispersion",
      "parameters": {
        "mutation_name": "color_grid",
        "n": 2,
        "diagram_name": "name",
        "title": "title"
      }
    }
  ]
}